<svg width="445" height="445" viewBox="0 0 445 445" fill="none" xmlns="http://www.w3.org/2000/svg">
<path fill-rule="evenodd" clip-rule="evenodd" d="M248.182 43.8218C255.184 50.8786 255.14 62.2754 248.083 69.2774L112.512 203.795L248.126 339.265C255.159 346.291 255.165 357.688 248.139 364.721C241.114 371.754 229.717 371.76 222.684 364.735L87.07 229.265C72.9596 215.169 72.9981 192.289 87.1559 178.241L222.727 43.7226C229.783 36.7206 241.18 36.765 248.182 43.8218Z" fill="black"/>
<path fill-rule="evenodd" clip-rule="evenodd" d="M370.777 43.8218C377.779 50.8786 377.735 62.2754 370.678 69.2774L235.108 203.795L370.721 339.265C377.754 346.291 377.76 357.688 370.735 364.721C363.709 371.754 352.312 371.76 345.279 364.735L209.665 229.265C195.555 215.169 195.593 192.289 209.751 178.241L345.322 43.7226C352.379 36.7206 363.775 36.765 370.777 43.8218Z" fill="black"/>
</svg>
